c:
0 1
0 1
1 1

a:
0 1
0 1
1 1

b:
0 1
0 1
1 1

z:
0 1
0 1
1 1


Tc:c-a
.25 0 0
0  .5 0
0   0 1


Ta:a-b
.25 0 0
0  .5 0
0   0 1

Tb:b-z
.25 0 0
0  .5 0
0   0 1

T0:z-z
.25 0 0
0  .5 0
0   0 1

T1:z-z
.45 .15  -.8
-.15  .45 .6
0 0 1

T2:z-z
.3 -.03 -.1
.03 .3  .5
0 0 1

T3:z-z
-.3 .4 .2
-.4 -.3 -.7
0 0 1


